{
    "defaultLocale": "it-IT",
    "locales": [
        "en-EN",
        "it-IT"
    ],
    "localePath": "i18n",
    "generatedPath": "lib/generated",
    "ltr": [
        "en-EN",
        "it-IT"
    ],
    "rtl": []
}