{
  "configVersion": 2,
  "packages": [
    {
      "name": "_fe_analyzer_shared",
      "rootUri": "file:///C:/Users/User/AppData/Local/Pub/Cache/hosted/pub.dartlang.org/_fe_analyzer_shared-5.0.0",
      "packageUri": "lib/",
      "languageVersion": "2.2"
    },
    {
      "name": "admob_flutter",
      "rootUri": "file:///C:/Users/User/AppData/Local/Pub/Cache/hosted/pub.dartlang.org/admob_flutter-0.3.3",
      "packageUri": "lib/",
      "languageVersion": "2.1"
    },
    {
      "name": "analyzer",
      "rootUri": "file:///C:/Users/User/AppData/Local/Pub/Cache/hosted/pub.dartlang.org/analyzer-0.39.11",
      "packageUri": "lib/",
      "languageVersion": "2.6"
    },
    {
      "name": "archive",
      "rootUri": "file:///C:/Users/User/AppData/Local/Pub/Cache/hosted/pub.dartlang.org/archive-2.0.13",
      "packageUri": "lib/",
      "languageVersion": "2.0"
    },
    {
      "name": "args",
      "rootUri": "file:///C:/Users/User/AppData/Local/Pub/Cache/hosted/pub.dartlang.org/args-1.6.0",
      "packageUri": "lib/",
      "languageVersion": "2.3"
    },
    {
      "name": "async",
      "rootUri": "file:///C:/Users/User/AppData/Local/Pub/Cache/hosted/pub.dartlang.org/async-2.4.1",
      "packageUri": "lib/",
      "languageVersion": "2.2"
    },
    {
      "name": "auto_localization",
      "rootUri": "file:///C:/Users/User/AppData/Local/Pub/Cache/hosted/pub.dartlang.org/auto_localization-0.1.12",
      "packageUri": "lib/",
      "languageVersion": "2.1"
    },
    {
      "name": "auto_size_text",
      "rootUri": "file:///C:/Users/User/AppData/Local/Pub/Cache/hosted/pub.dartlang.org/auto_size_text-2.1.0",
      "packageUri": "lib/",
      "languageVersion": "2.0"
    },
    {
      "name": "boolean_selector",
      "rootUri": "file:///C:/Users/User/AppData/Local/Pub/Cache/hosted/pub.dartlang.org/boolean_selector-2.0.0",
      "packageUri": "lib/",
      "languageVersion": "2.4"
    },
    {
      "name": "cached_network_image",
      "rootUri": "file:///C:/Users/User/AppData/Local/Pub/Cache/hosted/pub.dartlang.org/cached_network_image-2.0.0-rc.1",
      "packageUri": "lib/",
      "languageVersion": "2.0"
    },
    {
      "name": "carousel_slider",
      "rootUri": "file:///C:/Users/User/AppData/Local/Pub/Cache/hosted/pub.dartlang.org/carousel_slider-2.0.0",
      "packageUri": "lib/",
      "languageVersion": "2.6"
    },
    {
      "name": "charcode",
      "rootUri": "file:///C:/Users/User/AppData/Local/Pub/Cache/hosted/pub.dartlang.org/charcode-1.1.3",
      "packageUri": "lib/",
      "languageVersion": "2.0"
    },
    {
      "name": "clock",
      "rootUri": "file:///C:/Users/User/AppData/Local/Pub/Cache/hosted/pub.dartlang.org/clock-1.0.1",
      "packageUri": "lib/",
      "languageVersion": "2.0"
    },
    {
      "name": "cloud_firestore",
      "rootUri": "file:///C:/Users/User/AppData/Local/Pub/Cache/hosted/pub.dartlang.org/cloud_firestore-0.12.11",
      "packageUri": "lib/",
      "languageVersion": "2.0"
    },
    {
      "name": "collection",
      "rootUri": "file:///C:/Users/User/AppData/Local/Pub/Cache/hosted/pub.dartlang.org/collection-1.14.12",
      "packageUri": "lib/",
      "languageVersion": "2.0"
    },
    {
      "name": "convert",
      "rootUri": "file:///C:/Users/User/AppData/Local/Pub/Cache/hosted/pub.dartlang.org/convert-2.1.1",
      "packageUri": "lib/",
      "languageVersion": "1.17"
    },
    {
      "name": "cookie_jar",
      "rootUri": "file:///C:/Users/User/AppData/Local/Pub/Cache/hosted/pub.dartlang.org/cookie_jar-1.0.1",
      "packageUri": "lib/",
      "languageVersion": "1.20"
    },
    {
      "name": "crypto",
      "rootUri": "file:///C:/Users/User/AppData/Local/Pub/Cache/hosted/pub.dartlang.org/crypto-2.1.4",
      "packageUri": "lib/",
      "languageVersion": "2.1"
    },
    {
      "name": "csslib",
      "rootUri": "file:///C:/Users/User/AppData/Local/Pub/Cache/hosted/pub.dartlang.org/csslib-0.16.1",
      "packageUri": "lib/",
      "languageVersion": "2.1"
    },
    {
      "name": "cupertino_icons",
      "rootUri": "file:///C:/Users/User/AppData/Local/Pub/Cache/hosted/pub.dartlang.org/cupertino_icons-0.1.3",
      "packageUri": "lib/",
      "languageVersion": "2.0"
    },
    {
      "name": "dart_style",
      "rootUri": "file:///C:/Users/User/AppData/Local/Pub/Cache/hosted/pub.dartlang.org/dart_style-1.3.6",
      "packageUri": "lib/",
      "languageVersion": "2.7"
    },
    {
      "name": "datetime_picker_formfield",
      "rootUri": "file:///C:/Users/User/AppData/Local/Pub/Cache/hosted/pub.dartlang.org/datetime_picker_formfield-1.0.0",
      "packageUri": "lib/",
      "languageVersion": "2.0"
    },
    {
      "name": "dio",
      "rootUri": "file:///C:/Users/User/AppData/Local/Pub/Cache/hosted/pub.dartlang.org/dio-2.2.2",
      "packageUri": "lib/",
      "languageVersion": "1.9"
    },
    {
      "name": "expandable",
      "rootUri": "file:///C:/Users/User/AppData/Local/Pub/Cache/hosted/pub.dartlang.org/expandable-3.0.1",
      "packageUri": "lib/",
      "languageVersion": "2.3"
    },
    {
      "name": "fake_async",
      "rootUri": "file:///C:/Users/User/AppData/Local/Pub/Cache/hosted/pub.dartlang.org/fake_async-1.1.0",
      "packageUri": "lib/",
      "languageVersion": "2.2"
    },
    {
      "name": "file",
      "rootUri": "file:///C:/Users/User/AppData/Local/Pub/Cache/hosted/pub.dartlang.org/file-5.2.1",
      "packageUri": "lib/",
      "languageVersion": "2.2"
    },
    {
      "name": "firebase",
      "rootUri": "file:///C:/Users/User/AppData/Local/Pub/Cache/hosted/pub.dartlang.org/firebase-7.3.0",
      "packageUri": "lib/",
      "languageVersion": "2.7"
    },
    {
      "name": "firebase_auth",
      "rootUri": "file:///C:/Users/User/AppData/Local/Pub/Cache/hosted/pub.dartlang.org/firebase_auth-0.14.0+9",
      "packageUri": "lib/",
      "languageVersion": "2.0"
    },
    {
      "name": "firebase_core",
      "rootUri": "file:///C:/Users/User/AppData/Local/Pub/Cache/hosted/pub.dartlang.org/firebase_core-0.4.5",
      "packageUri": "lib/",
      "languageVersion": "2.0"
    },
    {
      "name": "firebase_core_platform_interface",
      "rootUri": "file:///C:/Users/User/AppData/Local/Pub/Cache/hosted/pub.dartlang.org/firebase_core_platform_interface-1.0.4",
      "packageUri": "lib/",
      "languageVersion": "2.0"
    },
    {
      "name": "firebase_core_web",
      "rootUri": "file:///C:/Users/User/AppData/Local/Pub/Cache/hosted/pub.dartlang.org/firebase_core_web-0.1.1+2",
      "packageUri": "lib/",
      "languageVersion": "2.0"
    },
    {
      "name": "firebase_messaging",
      "rootUri": "file:///C:/Users/User/AppData/Local/Pub/Cache/hosted/pub.dartlang.org/firebase_messaging-6.0.16",
      "packageUri": "lib/",
      "languageVersion": "2.0"
    },
    {
      "name": "firebase_storage",
      "rootUri": "file:///C:/Users/User/AppData/Local/Pub/Cache/hosted/pub.dartlang.org/firebase_storage-3.1.6",
      "packageUri": "lib/",
      "languageVersion": "2.0"
    },
    {
      "name": "flutter",
      "rootUri": "file:///C:/flutter/packages/flutter",
      "packageUri": "lib/",
      "languageVersion": "2.2"
    },
    {
      "name": "flutter_cache_manager",
      "rootUri": "file:///C:/Users/User/AppData/Local/Pub/Cache/hosted/pub.dartlang.org/flutter_cache_manager-1.4.1",
      "packageUri": "lib/",
      "languageVersion": "2.6"
    },
    {
      "name": "flutter_launcher_icons",
      "rootUri": "file:///C:/Users/User/AppData/Local/Pub/Cache/hosted/pub.dartlang.org/flutter_launcher_icons-0.7.5",
      "packageUri": "lib/",
      "languageVersion": "2.2"
    },
    {
      "name": "flutter_localizations",
      "rootUri": "file:///C:/flutter/packages/flutter_localizations",
      "packageUri": "lib/",
      "languageVersion": "2.2"
    },
    {
      "name": "flutter_plugin_android_lifecycle",
      "rootUri": "file:///C:/Users/User/AppData/Local/Pub/Cache/hosted/pub.dartlang.org/flutter_plugin_android_lifecycle-1.0.7",
      "packageUri": "lib/",
      "languageVersion": "2.1"
    },
    {
      "name": "flutter_test",
      "rootUri": "file:///C:/flutter/packages/flutter_test",
      "packageUri": "lib/",
      "languageVersion": "2.2"
    },
    {
      "name": "flutter_web_plugins",
      "rootUri": "file:///C:/flutter/packages/flutter_web_plugins",
      "packageUri": "lib/",
      "languageVersion": "2.0"
    },
    {
      "name": "fluttertoast",
      "rootUri": "file:///C:/Users/User/AppData/Local/Pub/Cache/hosted/pub.dartlang.org/fluttertoast-3.1.3",
      "packageUri": "lib/",
      "languageVersion": "2.0"
    },
    {
      "name": "glob",
      "rootUri": "file:///C:/Users/User/AppData/Local/Pub/Cache/hosted/pub.dartlang.org/glob-1.2.0",
      "packageUri": "lib/",
      "languageVersion": "2.1"
    },
    {
      "name": "html",
      "rootUri": "file:///C:/Users/User/AppData/Local/Pub/Cache/hosted/pub.dartlang.org/html-0.14.0+3",
      "packageUri": "lib/",
      "languageVersion": "2.3"
    },
    {
      "name": "http",
      "rootUri": "file:///C:/Users/User/AppData/Local/Pub/Cache/hosted/pub.dartlang.org/http-0.12.1",
      "packageUri": "lib/",
      "languageVersion": "2.4"
    },
    {
      "name": "http_parser",
      "rootUri": "file:///C:/Users/User/AppData/Local/Pub/Cache/hosted/pub.dartlang.org/http_parser-3.1.4",
      "packageUri": "lib/",
      "languageVersion": "2.3"
    },
    {
      "name": "i18n_extension",
      "rootUri": "file:///C:/Users/User/AppData/Local/Pub/Cache/hosted/pub.dartlang.org/i18n_extension-1.4.1",
      "packageUri": "lib/",
      "languageVersion": "2.8"
    },
    {
      "name": "image",
      "rootUri": "file:///C:/Users/User/AppData/Local/Pub/Cache/hosted/pub.dartlang.org/image-2.1.12",
      "packageUri": "lib/",
      "languageVersion": "2.0"
    },
    {
      "name": "image_picker",
      "rootUri": "file:///C:/Users/User/AppData/Local/Pub/Cache/hosted/pub.dartlang.org/image_picker-0.6.7+3",
      "packageUri": "lib/",
      "languageVersion": "2.1"
    },
    {
      "name": "image_picker_platform_interface",
      "rootUri": "file:///C:/Users/User/AppData/Local/Pub/Cache/hosted/pub.dartlang.org/image_picker_platform_interface-1.1.0",
      "packageUri": "lib/",
      "languageVersion": "2.5"
    },
    {
      "name": "in_app_purchase",
      "rootUri": "file:///C:/Users/User/AppData/Local/Pub/Cache/hosted/pub.dartlang.org/in_app_purchase-0.2.0+1",
      "packageUri": "lib/",
      "languageVersion": "2.0"
    },
    {
      "name": "intl",
      "rootUri": "file:///C:/Users/User/AppData/Local/Pub/Cache/hosted/pub.dartlang.org/intl-0.16.1",
      "packageUri": "lib/",
      "languageVersion": "2.5"
    },
    {
      "name": "intl_translation",
      "rootUri": "file:///C:/Users/User/AppData/Local/Pub/Cache/hosted/pub.dartlang.org/intl_translation-0.17.9",
      "packageUri": "lib/",
      "languageVersion": "2.0"
    },
    {
      "name": "js",
      "rootUri": "file:///C:/Users/User/AppData/Local/Pub/Cache/hosted/pub.dartlang.org/js-0.6.2",
      "packageUri": "lib/",
      "languageVersion": "2.0"
    },
    {
      "name": "json_annotation",
      "rootUri": "file:///C:/Users/User/AppData/Local/Pub/Cache/hosted/pub.dartlang.org/json_annotation-2.4.0",
      "packageUri": "lib/",
      "languageVersion": "2.2"
    },
    {
      "name": "liquid_progress_indicator",
      "rootUri": "file:///C:/Users/User/AppData/Local/Pub/Cache/hosted/pub.dartlang.org/liquid_progress_indicator-0.3.2",
      "packageUri": "lib/",
      "languageVersion": "2.2"
    },
    {
      "name": "matcher",
      "rootUri": "file:///C:/Users/User/AppData/Local/Pub/Cache/hosted/pub.dartlang.org/matcher-0.12.6",
      "packageUri": "lib/",
      "languageVersion": "2.2"
    },
    {
      "name": "meta",
      "rootUri": "file:///C:/Users/User/AppData/Local/Pub/Cache/hosted/pub.dartlang.org/meta-1.1.8",
      "packageUri": "lib/",
      "languageVersion": "1.12"
    },
    {
      "name": "nested",
      "rootUri": "file:///C:/Users/User/AppData/Local/Pub/Cache/hosted/pub.dartlang.org/nested-0.0.4",
      "packageUri": "lib/",
      "languageVersion": "2.2"
    },
    {
      "name": "node_interop",
      "rootUri": "file:///C:/Users/User/AppData/Local/Pub/Cache/hosted/pub.dartlang.org/node_interop-1.1.1",
      "packageUri": "lib/",
      "languageVersion": "2.0"
    },
    {
      "name": "node_io",
      "rootUri": "file:///C:/Users/User/AppData/Local/Pub/Cache/hosted/pub.dartlang.org/node_io-1.1.1",
      "packageUri": "lib/",
      "languageVersion": "2.2"
    },
    {
      "name": "package_config",
      "rootUri": "file:///C:/Users/User/AppData/Local/Pub/Cache/hosted/pub.dartlang.org/package_config-1.9.3",
      "packageUri": "lib/",
      "languageVersion": "2.7"
    },
    {
      "name": "path",
      "rootUri": "file:///C:/Users/User/AppData/Local/Pub/Cache/hosted/pub.dartlang.org/path-1.7.0",
      "packageUri": "lib/",
      "languageVersion": "2.0"
    },
    {
      "name": "path_provider",
      "rootUri": "file:///C:/Users/User/AppData/Local/Pub/Cache/hosted/pub.dartlang.org/path_provider-1.6.11",
      "packageUri": "lib/",
      "languageVersion": "2.1"
    },
    {
      "name": "path_provider_linux",
      "rootUri": "file:///C:/Users/User/AppData/Local/Pub/Cache/hosted/pub.dartlang.org/path_provider_linux-0.0.1+2",
      "packageUri": "lib/",
      "languageVersion": "2.1"
    },
    {
      "name": "path_provider_macos",
      "rootUri": "file:///C:/Users/User/AppData/Local/Pub/Cache/hosted/pub.dartlang.org/path_provider_macos-0.0.4+3",
      "packageUri": "lib/",
      "languageVersion": "2.1"
    },
    {
      "name": "path_provider_platform_interface",
      "rootUri": "file:///C:/Users/User/AppData/Local/Pub/Cache/hosted/pub.dartlang.org/path_provider_platform_interface-1.0.2",
      "packageUri": "lib/",
      "languageVersion": "2.1"
    },
    {
      "name": "pedantic",
      "rootUri": "file:///C:/Users/User/AppData/Local/Pub/Cache/hosted/pub.dartlang.org/pedantic-1.9.0",
      "packageUri": "lib/",
      "languageVersion": "2.1"
    },
    {
      "name": "petitparser",
      "rootUri": "file:///C:/Users/User/AppData/Local/Pub/Cache/hosted/pub.dartlang.org/petitparser-2.4.0",
      "packageUri": "lib/",
      "languageVersion": "2.4"
    },
    {
      "name": "platform",
      "rootUri": "file:///C:/Users/User/AppData/Local/Pub/Cache/hosted/pub.dartlang.org/platform-2.2.1",
      "packageUri": "lib/",
      "languageVersion": "1.24"
    },
    {
      "name": "platform_detect",
      "rootUri": "file:///C:/Users/User/AppData/Local/Pub/Cache/hosted/pub.dartlang.org/platform_detect-1.4.0",
      "packageUri": "lib/",
      "languageVersion": "2.4"
    },
    {
      "name": "plugin_platform_interface",
      "rootUri": "file:///C:/Users/User/AppData/Local/Pub/Cache/hosted/pub.dartlang.org/plugin_platform_interface-1.0.2",
      "packageUri": "lib/",
      "languageVersion": "2.1"
    },
    {
      "name": "process",
      "rootUri": "file:///C:/Users/User/AppData/Local/Pub/Cache/hosted/pub.dartlang.org/process-3.0.13",
      "packageUri": "lib/",
      "languageVersion": "2.0"
    },
    {
      "name": "provider",
      "rootUri": "file:///C:/Users/User/AppData/Local/Pub/Cache/hosted/pub.dartlang.org/provider-4.0.5",
      "packageUri": "lib/",
      "languageVersion": "2.2"
    },
    {
      "name": "pub_semver",
      "rootUri": "file:///C:/Users/User/AppData/Local/Pub/Cache/hosted/pub.dartlang.org/pub_semver-1.4.4",
      "packageUri": "lib/",
      "languageVersion": "2.0"
    },
    {
      "name": "quiver",
      "rootUri": "file:///C:/Users/User/AppData/Local/Pub/Cache/hosted/pub.dartlang.org/quiver-2.1.3",
      "packageUri": "lib/",
      "languageVersion": "2.0"
    },
    {
      "name": "rxdart",
      "rootUri": "file:///C:/Users/User/AppData/Local/Pub/Cache/hosted/pub.dartlang.org/rxdart-0.24.1",
      "packageUri": "lib/",
      "languageVersion": "2.6"
    },
    {
      "name": "share",
      "rootUri": "file:///C:/Users/User/AppData/Local/Pub/Cache/hosted/pub.dartlang.org/share-0.6.4+3",
      "packageUri": "lib/",
      "languageVersion": "2.1"
    },
    {
      "name": "shared_preferences",
      "rootUri": "file:///C:/Users/User/AppData/Local/Pub/Cache/hosted/pub.dartlang.org/shared_preferences-0.5.7+3",
      "packageUri": "lib/",
      "languageVersion": "2.1"
    },
    {
      "name": "shared_preferences_macos",
      "rootUri": "file:///C:/Users/User/AppData/Local/Pub/Cache/hosted/pub.dartlang.org/shared_preferences_macos-0.0.1+10",
      "packageUri": "lib/",
      "languageVersion": "2.1"
    },
    {
      "name": "shared_preferences_platform_interface",
      "rootUri": "file:///C:/Users/User/AppData/Local/Pub/Cache/hosted/pub.dartlang.org/shared_preferences_platform_interface-1.0.4",
      "packageUri": "lib/",
      "languageVersion": "2.1"
    },
    {
      "name": "shared_preferences_web",
      "rootUri": "file:///C:/Users/User/AppData/Local/Pub/Cache/hosted/pub.dartlang.org/shared_preferences_web-0.1.2+7",
      "packageUri": "lib/",
      "languageVersion": "2.1"
    },
    {
      "name": "sky_engine",
      "rootUri": "file:///C:/flutter/bin/cache/pkg/sky_engine",
      "packageUri": "lib/",
      "languageVersion": "1.11"
    },
    {
      "name": "source_span",
      "rootUri": "file:///C:/Users/User/AppData/Local/Pub/Cache/hosted/pub.dartlang.org/source_span-1.7.0",
      "packageUri": "lib/",
      "languageVersion": "2.6"
    },
    {
      "name": "sprintf",
      "rootUri": "file:///C:/Users/User/AppData/Local/Pub/Cache/hosted/pub.dartlang.org/sprintf-4.0.2",
      "packageUri": "lib/"
    },
    {
      "name": "sqflite",
      "rootUri": "file:///C:/Users/User/AppData/Local/Pub/Cache/hosted/pub.dartlang.org/sqflite-1.3.1",
      "packageUri": "lib/",
      "languageVersion": "2.7"
    },
    {
      "name": "sqflite_common",
      "rootUri": "file:///C:/Users/User/AppData/Local/Pub/Cache/hosted/pub.dartlang.org/sqflite_common-1.0.2+1",
      "packageUri": "lib/",
      "languageVersion": "2.7"
    },
    {
      "name": "stack_trace",
      "rootUri": "file:///C:/Users/User/AppData/Local/Pub/Cache/hosted/pub.dartlang.org/stack_trace-1.9.3",
      "packageUri": "lib/",
      "languageVersion": "1.23"
    },
    {
      "name": "stream_channel",
      "rootUri": "file:///C:/Users/User/AppData/Local/Pub/Cache/hosted/pub.dartlang.org/stream_channel-2.0.0",
      "packageUri": "lib/",
      "languageVersion": "2.0"
    },
    {
      "name": "string_scanner",
      "rootUri": "file:///C:/Users/User/AppData/Local/Pub/Cache/hosted/pub.dartlang.org/string_scanner-1.0.5",
      "packageUri": "lib/",
      "languageVersion": "2.0"
    },
    {
      "name": "synchronized",
      "rootUri": "file:///C:/Users/User/AppData/Local/Pub/Cache/hosted/pub.dartlang.org/synchronized-2.2.0+1",
      "packageUri": "lib/",
      "languageVersion": "2.8"
    },
    {
      "name": "term_glyph",
      "rootUri": "file:///C:/Users/User/AppData/Local/Pub/Cache/hosted/pub.dartlang.org/term_glyph-1.1.0",
      "packageUri": "lib/",
      "languageVersion": "1.8"
    },
    {
      "name": "test_api",
      "rootUri": "file:///C:/Users/User/AppData/Local/Pub/Cache/hosted/pub.dartlang.org/test_api-0.2.16",
      "packageUri": "lib/",
      "languageVersion": "2.7"
    },
    {
      "name": "translator",
      "rootUri": "file:///C:/Users/User/AppData/Local/Pub/Cache/hosted/pub.dartlang.org/translator-0.1.4",
      "packageUri": "lib/",
      "languageVersion": "2.6"
    },
    {
      "name": "typed_data",
      "rootUri": "file:///C:/Users/User/AppData/Local/Pub/Cache/hosted/pub.dartlang.org/typed_data-1.1.6",
      "packageUri": "lib/",
      "languageVersion": "2.0"
    },
    {
      "name": "url_launcher",
      "rootUri": "file:///C:/Users/User/AppData/Local/Pub/Cache/hosted/pub.dartlang.org/url_launcher-5.4.11",
      "packageUri": "lib/",
      "languageVersion": "2.1"
    },
    {
      "name": "url_launcher_macos",
      "rootUri": "file:///C:/Users/User/AppData/Local/Pub/Cache/hosted/pub.dartlang.org/url_launcher_macos-0.0.1+7",
      "packageUri": "lib/",
      "languageVersion": "2.1"
    },
    {
      "name": "url_launcher_platform_interface",
      "rootUri": "file:///C:/Users/User/AppData/Local/Pub/Cache/hosted/pub.dartlang.org/url_launcher_platform_interface-1.0.7",
      "packageUri": "lib/",
      "languageVersion": "2.1"
    },
    {
      "name": "url_launcher_web",
      "rootUri": "file:///C:/Users/User/AppData/Local/Pub/Cache/hosted/pub.dartlang.org/url_launcher_web-0.1.2",
      "packageUri": "lib/",
      "languageVersion": "2.2"
    },
    {
      "name": "uuid",
      "rootUri": "file:///C:/Users/User/AppData/Local/Pub/Cache/hosted/pub.dartlang.org/uuid-2.2.0",
      "packageUri": "lib/",
      "languageVersion": "2.0"
    },
    {
      "name": "vector_math",
      "rootUri": "file:///C:/Users/User/AppData/Local/Pub/Cache/hosted/pub.dartlang.org/vector_math-2.0.8",
      "packageUri": "lib/",
      "languageVersion": "2.0"
    },
    {
      "name": "watcher",
      "rootUri": "file:///C:/Users/User/AppData/Local/Pub/Cache/hosted/pub.dartlang.org/watcher-0.9.7+15",
      "packageUri": "lib/",
      "languageVersion": "2.2"
    },
    {
      "name": "xdg_directories",
      "rootUri": "file:///C:/Users/User/AppData/Local/Pub/Cache/hosted/pub.dartlang.org/xdg_directories-0.1.0",
      "packageUri": "lib/",
      "languageVersion": "2.3"
    },
    {
      "name": "xml",
      "rootUri": "file:///C:/Users/User/AppData/Local/Pub/Cache/hosted/pub.dartlang.org/xml-3.6.1",
      "packageUri": "lib/",
      "languageVersion": "2.6"
    },
    {
      "name": "yaml",
      "rootUri": "file:///C:/Users/User/AppData/Local/Pub/Cache/hosted/pub.dartlang.org/yaml-2.2.1",
      "packageUri": "lib/",
      "languageVersion": "2.4"
    },
    {
      "name": "warmie",
      "rootUri": "../",
      "packageUri": "lib/",
      "languageVersion": "2.6"
    }
  ],
  "generated": "2020-07-23T07:48:01.274651Z",
  "generator": "pub",
  "generatorVersion": "2.9.0-14.1.beta"
}
